Teaching the tidyverse in 2023
…
Conflict resolution in R, i.e., what to do if multiple packages that are loaded in a session have functions with the same name, can get tricky, and the conflicted package is designed to help with that. R’s default conflict resolution gives precedence to the most recently loaded package. For example, if you use the filter function before loading the tidyverse, R will use stats::filter():

penguins |>
  filter(species == "Adelie")

Error in eval(expr, envir, enclos): object 'species' not found

However, after loading the tidyverse, when you call filter(), R will silently choose dplyr::filter():

penguins |>
  filter(species == "Adelie")

# A tibble: 152 × 8
   species island    bill_length_mm bill_depth_mm flipper_length_mm body_mass_g
   <fct>   <fct>              <dbl>         <dbl>             <int>       <int>
 1 Adelie  Torgersen           39.1          18.7               181        3750
 2 Adelie  Torgersen           39.5          17.4               186        3800
 3 Adelie  Torgersen           40.3          18                 195        3250
 4 Adelie  Torgersen           NA            NA                  NA          NA
 5 Adelie  Torgersen           36.7          19.3               193        3450
 6 Adelie  Torgersen           39.3          20.6               190        3650
 7 Adelie  Torgersen           38.9          17.8               181        3625
 8 Adelie  Torgersen           39.2          19.6               195        4675
 9 Adelie  Torgersen           34.1          18.1               193        3475
10 Adelie  Torgersen           42            20.2               190        4250
# ℹ 142 more rows
# ℹ 2 more variables: sex <fct>, year <int>
…
You can, of course, use dplyr::filter() but if you have a bunch of data wrangling pipelines, which is likely the case if you’re teaching data wrangling, it can get pretty busy.

Instead, with conflicted, you can explicitly declare which filter() you want to use at the beginning (of a session, of a script, or of an R Markdown or Quarto file) with conflicts_prefer():

conflicts_prefer(dplyr::filter)

[conflicted] Will prefer dplyr::filter over any other package.

penguins |>
  filter(species == "Adelie")

# A tibble: 152 × 8
   species island    bill_length_mm bill_depth_mm flipper_length_mm body_mass_g
   <fct>   <fct>              <dbl>         <dbl>             <int>       <int>
 1 Adelie  Torgersen           39.1          18.7               181        3750
 2 Adelie  Torgersen           39.5          17.4               186        3800
 3 Adelie  Torgersen           40.3          18                 195        3250
 4 Adelie  Torgersen           NA            NA                  NA          NA
 5 Adelie  Torgersen           36.7          19.3               193        3450
 6 Adelie  Torgersen           39.3          20.6               190        3650
 7 Adelie  Torgersen           38.9          17.8               181        3625
 8 Adelie  Torgersen           39.2          19.6               195        4675
 9 Adelie  Torgersen           34.1          18.1               193        3475
10 Adelie  Torgersen           42            20.2               190        4250
# ℹ 142 more rows
# ℹ 2 more variables: sex <fct>, year <int>
…
You can join this to the penguins data frame by matching the island column in the penguins data frame to the name column in the islands data frame:

penguins |>
  left_join(
    islands, 
    by = join_by(island == name)
  ) |>
  select(species, island, coordinates)

# A tibble: 344 × 3
   species island    coordinates   
   <fct>   <chr>     <chr>         
 1 Adelie  Torgersen 64°46′S 64°5′W
 2 Adelie  Torgersen 64°46′S 64°5′W
 3 Adelie  Torgersen 64°46′S 64°5′W
 4 Adelie  Torgersen 64°46′S 64°5′W
 5 Adelie  Torgersen 64°46′S 64°5′W
 6 Adelie  Torgersen 64°46′S 64°5′W
 7 Adelie  Torgersen 64°46′S 64°5′W
 8 Adelie  Torgersen 64°46′S 64°5′W
 9 Adelie  Torgersen 64°46′S 64°5′W
10 Adelie  Torgersen 64°46′S 64°5′W
# ℹ 334 more rows
…
For example, you can now do something like the following when creating a categorical version of a numerical variable that has some NAs.

penguins |>
  mutate(
    bm_cat = case_when(
      is.na(body_mass_g) ~ NA,
      body_mass_g < 3550 ~ "Small",
      between(body_mass_g, 3550, 4750) ~ "Medium",
      .default = "Large"
    )
  ) |>
  relocate(body_mass_g, bm_cat)

# A tibble: 344 × 9
   body_mass_g bm_cat species island    bill_length_mm bill_depth_mm
         <int> <chr>  <fct>   <fct>              <dbl>         <dbl>
 1        3750 Medium Adelie  Torgersen           39.1          18.7
 2        3800 Medium Adelie  Torgersen           39.5          17.4
 3        3250 Small  Adelie  Torgersen           40.3          18  
 4          NA <NA>   Adelie  Torgersen           NA            NA  
 5        3450 Small  Adelie  Torgersen           36.7          19.3
 6        3650 Medium Adelie  Torgersen           39.3          20.6
 7        3625 Medium Adelie  Torgersen           38.9          17.8
 8        4675 Medium Adelie  Torgersen           39.2          19.6
 9        3475 Small  Adelie  Torgersen           34.1          18.1
10        4250 Medium Adelie  Torgersen           42            20.2
# ℹ 334 more rows
# ℹ 3 more variables: flipper_length_mm <int>, sex <fct>, year <int>

if_else()

Similarly, if_else() is no longer as strict about typed missing values either.

penguins |>
  mutate(
    bm_unit = if_else(!is.na(body_mass_g), paste(body_mass_g, "g"), NA)
  ) |>
  relocate(body_mass_g, bm_unit)

# A tibble: 344 × 9
   body_mass_g bm_unit species island    bill_length_mm bill_depth_mm
         <int> <chr>   <fct>   <fct>              <dbl>         <dbl>
 1        3750 3750 g  Adelie  Torgersen           39.1          18.7
 2        3800 3800 g  Adelie  Torgersen           39.5          17.4
 3        3250 3250 g  Adelie  Torgersen           40.3          18  
 4          NA <NA>    Adelie  Torgersen           NA            NA  
 5        3450 3450 g  Adelie  Torgersen           36.7          19.3
 6        3650 3650 g  Adelie  Torgersen           39.3          20.6
 7        3625 3625 g  Adelie  Torgersen           38.9          17.8
 8        4675 4675 g  Adelie  Torgersen           39.2          19.6
 9        3475 3475 g  Adelie  Torgersen           34.1          18.1
10        4250 4250 g  Adelie  Torgersen           42            20.2
# ℹ 334 more rows
# ℹ 3 more variables: flipper_length_mm <int>, sex <fct>, year <int>
…
